<?xml version="1.0" encoding="UTF-8"?>
<!DOCTYPE svg PUBLIC "-//W3C//DTD SVG 1.1//EN" "http://www.w3.org/Graphics/SVG/1.1/DTD/svg11.dtd">
<!-- Creator: CorelDRAW 2017 -->
<svg xmlns="http://www.w3.org/2000/svg" xml:space="preserve" width="2237px" height="3250px" version="1.1" style="shape-rendering:geometricPrecision; text-rendering:geometricPrecision; image-rendering:optimizeQuality; fill-rule:evenodd; clip-rule:evenodd"
viewBox="0 0 2202.09 3199.49"
 xmlns:xlink="http://www.w3.org/1999/xlink">
 <defs>
  <style type="text/css">
   <![CDATA[
    .fil0 {fill:#E31E24}
    .fil1 {fill:#434142}
   ]]>
  </style>
 </defs>
 <g id="_12">
  <metadata id="CorelCorpID_0Corel-Layer"/>
  <polygon class="fil0" points="1091.32,0 0,1603.38 1090.97,3199.49 2202.09,1596.37 "/>
  <polygon class="fil1" points="1090.55,260.48 227.1,1515.56 1968.86,1516.69 "/>
  <polygon class="fil0" points="1091.24,592.18 1635.76,1362.7 519.87,1370.26 "/>
  <polygon class="fil0" points="226.88,1643.45 1967.98,1642.98 1097.49,2906.56 "/>
  <polygon class="fil1" points="1967.98,1642.98 226.88,1643.45 1097.49,2906.56 "/>
 </g>
</svg>
